{  
   "population":{  
      "type":"Chinese",
      "subject":{  
         "blood_flow":{  
            "qc":360,
            "qt_adipose":0.05,
            "qt_bone":0.05,
            "qt_brain":0.12,
            "qt_gut":0.15,
            "qt_heart":0.04,
            "qt_kidney":0.19,
            "qt_liver":0.255,
            "qt_lung":1,
            "qt_muscle":0.17,
            "qt_skin":0.05,
            "qt_spleen":0.02,
            "qt_arterial":1,
            "qt_venous":1,
            "qt_pancreas":0.01,
            "qha":0.0654,
            "qpv":0.19,
            "gfr":107.89
         },
         "tissue_volumn":{  
            "bw":65,
            "vt_adipose":0.2,
            "vt_bone":0.0518,
            "vt_brain":0.02,
            "vt_gut":0.0164,
            "vt_heart":0.0054,
            "vt_kidney":0.0033,
            "vt_liver":0.0243,
            "vt_lung":0.0075,
            "vt_muscle":0.421,
            "vt_skin":0.0475,
            "vt_spleen":0.002,
            "vt_arterial":0.0255,
            "vt_venous":0.0511,
            "vt_pancreas":0.0016
         }
      }
   },
   "drug":{  
      "name":"test drug",
      "physchem":{  
         "bp":0.55,
         "fu":1.0
      },
      "absorption":{  
         "dlm":{  
            "release_time":0,
            "release_fraction":100,
            "particle_radius":10,
            "particle_fraction":100,
            "intrinsic_solubility":0.5,
            "diffusion_coefficent":0.1,
            "h_eff_cutoff":30
         },
         "first_order":{  
            "fa":1.0,
            "ka":3.0,
            "fg":1.0
         },
         "adam":{  
            "bioavailability":1,
            "dissolution":[  
               {  
                  "time":10,
                  "test":10,
                  "reference":100
               },
               {  
                  "time":20,
                  "test":15,
                  "reference":100
               },
               {  
                  "time":30,
                  "test":20,
                  "reference":100
               },
               {  
                  "time":40,
                  "test":50,
                  "reference":100
               },
               {  
                  "time":50,
                  "test":100,
                  "reference":100
               },
               {  
                  "time":60,
                  "test":100,
                  "reference":100
               }
            ]
         }
      },
      "distribution":{  
         "mini_pbpk":{  
            "vss":1,
            "kp_liver":1
         },
         "full_pbpk":{  
            "kpscalar":1,
            "pptp_adipose":1,
            "pptp_bone":1,
            "pptp_brain":1,
            "pptp_gut":1,
            "pptp_heart":1,
            "pptp_kidney":1,
            "pptp_liver":1,
            "pptp_lung":1,
            "pptp_muscle":1,
            "pptp_skin":1,
            "pptp_spleen":1,
            "pptp_arterial":1,
            "pptp_venous":1,
            "pptp_pancreas":1
         },
         "vbe":{  
            "v1":1,
            "v2":1,
            "v3":1
         }
      },
      "metabolism":{  
         "full_pbpk":{  
            "pclint_h_m1":1.0,
            "pclint_h_m2":0,
            "pclre":0.0
         },
         "mini_pbpk":{  
            "clre":0,
            "clint_h":0,
            "uptake":1
         },
         "vbe":{  
            "cl1":1,
            "cl2":0,
            "k12":0,
            "k21":0,
            "k13":0,
            "k31":0
         }
      }
   },
   "trial_design":{  
      "full_pbpk":{  
         "subject":{  
            "population":"Chinese",
            "total_subject":6,
            "female":0.5,
            "age_min":20,
            "age_max":60,
            "weight_min":50,
            "weight_max":100
         },
         "plan":{  
            "dos":300,
            "duration":24
         }
      },
      "mini_pbpk":{  
         "subject":{  
            "population":"Chinese",
            "total_subject":6,
            "female":0.5,
            "age_min":20,
            "age_max":60,
            "weight_min":50,
            "weight_max":100
         },
         "plan":{  
            "dos":300,
            "duration":24
         }
      },
      "vbe":{  
         "subject":{  
            "population":"Chinese",
            "total_subject":6,
            "female":0.5,
            "age_min":20,
            "age_max":60,
            "weight_min":50,
            "weight_max":100
         },
         "plan":{  
            "phase1_duration":4,
            "phase2_duration":4,
            "washout_duration":10,
            "total_duration":18,
            "dose":10,
            "water_intake":250
         }
      }
   }
}